\relax 
\providecommand\hyper@newdestlabel[2]{}
\providecommand\HyperFirstAtBeginDocument{\AtBeginDocument}
\HyperFirstAtBeginDocument{\ifx\hyper@anchor\@undefined
\global\let\oldcontentsline\contentsline
\gdef\contentsline#1#2#3#4{\oldcontentsline{#1}{#2}{#3}}
\global\let\oldnewlabel\newlabel
\gdef\newlabel#1#2{\newlabelxx{#1}#2}
\gdef\newlabelxx#1#2#3#4#5#6{\oldnewlabel{#1}{{#2}{#3}}}
\AtEndDocument{\ifx\hyper@anchor\@undefined
\let\contentsline\oldcontentsline
\let\newlabel\oldnewlabel
\fi}
\fi}
\global\let\hyper@last\relax 
\gdef\HyperFirstAtBeginDocument#1{#1}
\providecommand\HyField@AuxAddToFields[1]{}
\providecommand\HyField@AuxAddToCoFields[2]{}
\@writefile{toc}{\contentsline {chapter}{Declaration of Authorship}{i}{dummy.1}}
\@writefile{toc}{\vspace  {1em}}
\@writefile{toc}{\contentsline {chapter}{Abstract}{iii}{dummy.2}}
\@writefile{toc}{\vspace  {1em}}
\@writefile{toc}{\contentsline {chapter}{Acknowledgements}{iv}{dummy.3}}
\@writefile{toc}{\vspace  {1em}}
\@writefile{toc}{\contentsline {chapter}{Contents}{v}{dummy.4}}
\@writefile{toc}{\contentsline {chapter}{List of Figures}{vii}{dummy.6}}
\@writefile{toc}{\contentsline {chapter}{List of Tables}{x}{dummy.9}}
\gdef\@extra@binfo{@-1}\@writefile{toc}{\gdef \the@ipfilectr{@-1}}\@writefile{lof}{\gdef \the@ipfilectr{@-1}}\@writefile{lot}{\gdef \the@ipfilectr{@-1}}
\@input{Chapters/Chapter1.aux}
\@writefile{toc}{\vspace  {2em}}
\gdef\@extra@binfo{}\@writefile{toc}{\gdef \the@ipfilectr{}}\@writefile{lof}{\gdef \the@ipfilectr{}}\@writefile{lot}{\gdef \the@ipfilectr{}}
\gdef\@extra@binfo{@-2}\@writefile{toc}{\gdef \the@ipfilectr{@-2}}\@writefile{lof}{\gdef \the@ipfilectr{@-2}}\@writefile{lot}{\gdef \the@ipfilectr{@-2}}
\@input{Chapters/Chapter2.aux}
\gdef\@extra@binfo{}\@writefile{toc}{\gdef \the@ipfilectr{}}\@writefile{lof}{\gdef \the@ipfilectr{}}\@writefile{lot}{\gdef \the@ipfilectr{}}
\gdef\@extra@binfo{@-3}\@writefile{toc}{\gdef \the@ipfilectr{@-3}}\@writefile{lof}{\gdef \the@ipfilectr{@-3}}\@writefile{lot}{\gdef \the@ipfilectr{@-3}}
\@input{Chapters/Chapter3.aux}
\gdef\@extra@binfo{}\@writefile{toc}{\gdef \the@ipfilectr{}}\@writefile{lof}{\gdef \the@ipfilectr{}}\@writefile{lot}{\gdef \the@ipfilectr{}}
\gdef\@extra@binfo{@-4}\@writefile{toc}{\gdef \the@ipfilectr{@-4}}\@writefile{lof}{\gdef \the@ipfilectr{@-4}}\@writefile{lot}{\gdef \the@ipfilectr{@-4}}
\@input{Chapters/Chapter4.aux}
\gdef\@extra@binfo{}\@writefile{toc}{\gdef \the@ipfilectr{}}\@writefile{lof}{\gdef \the@ipfilectr{}}\@writefile{lot}{\gdef \the@ipfilectr{}}
\gdef\@extra@binfo{@-5}\@writefile{toc}{\gdef \the@ipfilectr{@-5}}\@writefile{lof}{\gdef \the@ipfilectr{@-5}}\@writefile{lot}{\gdef \the@ipfilectr{@-5}}
\@input{Chapters/Chapter5.aux}
\gdef\@extra@binfo{}\@writefile{toc}{\gdef \the@ipfilectr{}}\@writefile{lof}{\gdef \the@ipfilectr{}}\@writefile{lot}{\gdef \the@ipfilectr{}}
\gdef\@extra@binfo{@-6}\@writefile{toc}{\gdef \the@ipfilectr{@-6}}\@writefile{lof}{\gdef \the@ipfilectr{@-6}}\@writefile{lot}{\gdef \the@ipfilectr{@-6}}
\@input{Chapters/Chapter6.aux}
\gdef\@extra@binfo{}\@writefile{toc}{\gdef \the@ipfilectr{}}\@writefile{lof}{\gdef \the@ipfilectr{}}\@writefile{lot}{\gdef \the@ipfilectr{}}
